AntiFeatures:UpstreamNonFree
Categories:Games
License:GPLv3+
Web Site:
Source Code:
Issue Tracker:

Auto Name:andRoc
Summary:Model railway controller client
Description:
A controller client for RocRail, a model railway controller.

Expect no further updates - this project is no longer Free Software.
.

Repo Type:bzr
Repo:lp:rocrail/androc

Build:1.1.219,219
    commit=219

Build:1.1.221,221
    commit=221

Build:1.2.224,224
    disable=No source for this version in repo
    commit=unknown - see disabled

Build:1.2.228,228
    commit=228

Build:1.3.230,230
    commit=230

Build:1.4.252,252
    commit=252

Build:1.4.266,266
    commit=266

Build:1.4.273,273
    commit=273

Build:1.4.280,280
    commit=280

Build:1.4.281,281
    commit=281

Build:1.4.284,284
    commit=284

Build:1.4.286,286
    commit=286

Build:1.4.289,289
    commit=289

Build:1.5.315,315
    commit=315

Build:1.5.317,317
    disable=wrong version code
    commit=unknown - see disabled

Build:1.5.324,324
    commit=324

Build:339,339
    commit=339

Build:342,342
    commit=342
    target=android-14

Build:344,344
    commit=344
    target=android-14

Build:345,345
    commit=345
    target=android-14

Build:347,347
    commit=347
    target=android-14

Build:348,348
    commit=348
    target=android-14

Build:350,350
    commit=350
    target=android-14

Build:351,351
    commit=351
    target=android-14

Build:359,359
    commit=359
    target=android-14

Build:362,362
    commit=362
    target=android-14

Build:365,365
    commit=365
    target=android-14

Build:366,366
    commit=366
    target=android-14

Build:369,369
    commit=369
    target=android-14

Build:371,371
    commit=371
    target=android-14

Build:373,373
    commit=373
    target=android-14

Build:375,375
    commit=375
    target=android-14

Build:376,376
    commit=376
    target=android-14

Build:377,377
    disable=wrong version code at 377
    commit=377
    target=android-14

Build:379,379
    commit=379
    target=android-14

Build:381,381
    commit=381
    target=android-14

Build:386,386
    commit=386
    target=android-14

Build:388,388
    commit=388
    target=android-14

Build:389,389
    commit=389
    target=android-14

Build:391,391
    commit=391
    target=android-14

Build:392,392
    commit=392
    target=android-14

Build:393,393
    commit=393
    target=android-14

Build:395,395
    commit=395
    target=android-14

Build:398,398
    commit=398
    target=android-14

Build:399,399
    commit=399
    target=android-14

Build:401,401
    commit=402
    target=android-14

Build:407,407
    commit=407
    target=android-14

Build:409,409
    commit=409
    target=android-14

Build:414,414
    commit=414
    target=android-14

Build:418,418
    commit=418
    target=android-14

Auto Update Mode:None
Update Check Mode:Static
Current Version:418
Current Version Code:418
